Chapter 3 Data Analysis with R | R Manual
…
# first element in the 6th column (as a vector)
df[1, 6]   

## # A tibble: 1 × 1
##   species_id
##   <chr>     
## 1 NL

# first column of the data frame (as a vector)
df[, 1]    

## # A tibble: 34,786 × 1
##    record_id
##        <dbl>
##  1         1
##  2        72
##  3       224
##  4       266
##  5       349
##  6       363
##  7       435
##  8       506
##  9       588
## 10       661
## # … with 34,776 more rows

# first column of the data frame (as a data.frame)
df[1]      

## # A tibble: 34,786 × 1
##    record_id
##        <dbl>
##  1         1
##  2        72
##  3       224
##  4       266
##  5       349
##  6       363
##  7       435
##  8       506
##  9       588
## 10       661
## # … with 34,776 more rows
…
# equivalent to head_df <- head(df)
head_df <- df[1:6, ] 

: is a special function that creates numeric vectors of integers in increasing
or decreasing order, test 1:10 and 10:1 for instance.

You can also exclude certain indices of a data frame using the “-” sign:

df[, -1]          # The whole data frame, except the first column

## # A tibble: 34,786 × 12
##    month   day  year plot_id species_id sex   hindf…¹ weight genus species taxa 
##    <dbl> <dbl> <dbl>   <dbl> <chr>      <chr>   <dbl>  <dbl> <chr> <chr>   <chr>
##  1     7    16  1977       2 NL         M          32     NA Neot… albigu… Rode…
##  2     8    19  1977       2 NL         M          31     NA Neot… albigu… Rode…
##  3     9    13  1977       2 NL         <NA>       NA     NA Neot… albigu… Rode…
##  4    10    16  1977       2 NL         <NA>       NA     NA Neot… albigu… Rode…
##  5    11    12  1977       2 NL         <NA>       NA     NA Neot… albigu… Rode…
##  6    11    12  1977       2 NL         <NA>       NA     NA Neot… albigu… Rode…
##  7    12    10  1977       2 NL         <NA>       NA     NA Neot… albigu… Rode…
##  8     1     8  1978       2 NL         <NA>       NA     NA Neot… albigu… Rode…
##  9     2    18  1978       2 NL         M          NA    218 Neot… albigu… Rode…
## 10     3    11  1978       2 NL         <NA>       NA     NA Neot… albigu… Rode…
## # … with 34,776 more rows, 1 more variable: plot_type <chr>, and abbreviated
## #   variable name ¹​hindfoot_length
…
arrange(): sort results

count(): count discrete values

3.8.1.2 Selecting columns and filtering rows

To select columns of a data frame, use select(). The first argument
to this function is the data frame (df), and the subsequent
arguments are the columns to keep.

library(dplyr)
dplyr::select(df, plot_id, species_id, weight)

## # A tibble: 34,786 × 3
##    plot_id species_id weight
##      <dbl> <chr>       <dbl>
##  1       2 NL             NA
##  2       2 NL             NA
##  3       2 NL             NA
##  4       2 NL             NA
##  5       2 NL             NA
##  6       2 NL             NA
##  7       2 NL             NA
##  8       2 NL             NA
##  9       2 NL            218
## 10       2 NL             NA
## # … with 34,776 more rows

To select all columns except certain ones, put a “-” in front of
the variable to exclude it.

dplyr::select(df, -record_id, -species_id)

## # A tibble: 34,786 × 11
##    month   day  year plot_id sex   hindfoot…¹ weight genus species taxa  plot_…²
##    <dbl> <dbl> <dbl>   <dbl> <chr>      <dbl>  <dbl> <chr> <chr>   <chr> <chr>  
##  1     7    16  1977       2 M             32     NA Neot… albigu… Rode… Control
##  2     8    19  1977       2 M             31     NA Neot… albigu… Rode… Control
##  3     9    13  1977       2 <NA>          NA     NA Neot… albigu… Rode… Control
##  4    10    16  1977       2 <NA>          NA     NA Neot… albigu… Rode… Control
##  5    11    12  1977       2 <NA>          NA     NA Neot… albigu… Rode… Control
##  6    11    12  1977       2 <NA>          NA     NA Neot… albigu… Rode… Control
##  7    12    10  1977       2 <NA>          NA     NA Neot… albigu… Rode… Control
##  8     1     8  1978       2 <NA>          NA     NA Neot… albigu… Rode… Control
##  9     2    18  1978       2 M             NA    218 Neot… albigu… Rode… Control
## 10     3    11  1978       2 <NA>          NA     NA Neot… albigu… Rode… Control
## # … with 34,776 more rows, and abbreviated variable names ¹​hindfoot_length,
## #   ²​plot_type

This will select all the variables in df except record_id
and species_id.

To choose rows based on a specific criteria, use filter():

dplyr::filter(df, year == 1995)

## # A tibble: 1,180 × 13
##    record…¹ month   day  year plot_id speci…² sex   hindf…³ weight genus species
##       <dbl> <dbl> <dbl> <dbl>   <dbl> <chr>   <chr>   <dbl>  <dbl> <chr> <chr>  
##  1    22314     6     7  1995       2 NL      M          34     NA Neot… albigu…
##  2    22728     9    23  1995       2 NL      F          32    165 Neot… albigu…
##  3    22899    10    28  1995       2 NL      F          32    171 Neot… albigu…
##  4    23032    12     2  1995       2 NL      F          33     NA Neot… albigu…
##  5    22003     1    11  1995       2 DM      M          37     41 Dipo… merria…
##  6    22042     2     4  1995       2 DM      F          36     45 Dipo… merria…
##  7    22044     2     4  1995       2 DM      M          37     46 Dipo… merria…
##  8    22105     3     4  1995       2 DM      F          37     49 Dipo… merria…
##  9    22109     3     4  1995       2 DM      M          37     46 Dipo… merria…
## 10    22168     4     1  1995       2 DM      M          36     48 Dipo… merria…
## # … with 1,170 more rows, 2 more variables: taxa <chr>, plot_type <chr>, and
## #   abbreviated variable names ¹​record_id, ²​species_id, ³​hindfoot_length
…
Note that the final data frame is the leftmost part of this expression.

3.8.1.3.1 Mutate

Frequently you’ll want to create new columns based on the values in existing
columns, for example to do unit conversions, or to find the ratio of values in two
columns. For this we’ll use mutate().

To create a new column of weight in kg:

df %>%
  mutate(weight_kg = weight / 1000)

## # A tibble: 34,786 × 14
##    record…¹ month   day  year plot_id speci…² sex   hindf…³ weight genus species
##       <dbl> <dbl> <dbl> <dbl>   <dbl> <chr>   <chr>   <dbl>  <dbl> <chr> <chr>  
##  1        1     7    16  1977       2 NL      M          32     NA Neot… albigu…
##  2       72     8    19  1977       2 NL      M          31     NA Neot… albigu…
##  3      224     9    13  1977       2 NL      <NA>       NA     NA Neot… albigu…
##  4      266    10    16  1977       2 NL      <NA>       NA     NA Neot… albigu…
##  5      349    11    12  1977       2 NL      <NA>       NA     NA Neot… albigu…
##  6      363    11    12  1977       2 NL      <NA>       NA     NA Neot… albigu…
##  7      435    12    10  1977       2 NL      <NA>       NA     NA Neot… albigu…
##  8      506     1     8  1978       2 NL      <NA>       NA     NA Neot… albigu…
##  9      588     2    18  1978       2 NL      M          NA    218 Neot… albigu…
## 10      661     3    11  1978       2 NL      <NA>       NA     NA Neot… albigu…
## # … with 34,776 more rows, 3 more variables: taxa <chr>, plot_type <chr>,
## #   weight_kg <dbl>, and abbreviated variable names ¹​record_id, ²​species_id,
## #   ³​hindfoot_length

You can also create a second new column based on the first new column within the same call of mutate():

df %>%
  mutate(weight_kg = weight / 1000,
         weight_kg2 = weight_kg * 2)

## # A tibble: 34,786 × 15
##    record…¹ month   day  year plot_id speci…² sex   hindf…³ weight genus species
##       <dbl> <dbl> <dbl> <dbl>   <dbl> <chr>   <chr>   <dbl>  <dbl> <chr> <chr>  
##  1        1     7    16  1977       2 NL      M          32     NA Neot… albigu…
##  2       72     8    19  1977       2 NL      M          31     NA Neot… albigu…
##  3      224     9    13  1977       2 NL      <NA>       NA     NA Neot… albigu…
##  4      266    10    16  1977       2 NL      <NA>       NA     NA Neot… albigu…
##  5      349    11    12  1977       2 NL      <NA>       NA     NA Neot… albigu…
##  6      363    11    12  1977       2 NL      <NA>       NA     NA Neot… albigu…
##  7      435    12    10  1977       2 NL      <NA>       NA     NA Neot… albigu…
##  8      506     1     8  1978       2 NL      <NA>       NA     NA Neot… albigu…
##  9      588     2    18  1978       2 NL      M          NA    218 Neot… albigu…
## 10      661     3    11  1978       2 NL      <NA>       NA     NA Neot… albigu…
## # … with 34,776 more rows, 4 more variables: taxa <chr>, plot_type <chr>,
## #   weight_kg <dbl>, weight_kg2 <dbl>, and abbreviated variable names
## #   ¹​record_id, ²​species_id, ³​hindfoot_length
…
You may also have noticed that the output from these calls doesn’t run off the
screen anymore. It’s one of the advantages of tbl_df over data frame.

You can also group by multiple columns:

df %>%
  group_by(sex, species_id) %>%
  summarize(mean_weight = mean(weight, na.rm = TRUE))

## # A tibble: 92 × 3
## # Groups:   sex [3]
##    sex   species_id mean_weight
##    <chr> <chr>            <dbl>
##  1 F     BA                9.16
##  2 F     DM               41.6 
##  3 F     DO               48.5 
##  4 F     DS              118.  
##  5 F     NL              154.  
##  6 F     OL               31.1 
##  7 F     OT               24.8 
##  8 F     OX               21   
##  9 F     PB               30.2 
## 10 F     PE               22.8 
## # … with 82 more rows

When grouping both by sex and species_id, the last few rows are for animals
that escaped before their sex and body weights could be determined. You may notice
that the last column does not contain NA but NaN (which refers to “Not a
Number”). To avoid this, we can remove the missing values for weight before we
attempt to calculate the summary statistics on weight. Because the missing
values are removed first, we can omit na.rm = TRUE when computing the mean:

df %>%
  filter(!is.na(weight)) %>%
  group_by(sex, species_id) %>%
  summarize(mean_weight = mean(weight))

## # A tibble: 64 × 3
## # Groups:   sex [3]
##    sex   species_id mean_weight
##    <chr> <chr>            <dbl>
##  1 F     BA                9.16
##  2 F     DM               41.6 
##  3 F     DO               48.5 
##  4 F     DS              118.  
##  5 F     NL              154.  
##  6 F     OL               31.1 
##  7 F     OT               24.8 
##  8 F     OX               21   
##  9 F     PB               30.2 
## 10 F     PE               22.8 
## # … with 54 more rows

Here, again, the output from these calls doesn’t run off the screen
anymore. If you want to display more data, you can use the print() function
at the end of your chain with the argument n specifying the number of rows to
display:

df %>%
  filter(!is.na(weight)) %>%
  group_by(sex, species_id) %>%
  summarize(mean_weight = mean(weight)) %>%
  print(n = 15)

## # A tibble: 64 × 3
## # Groups:   sex [3]
##    sex   species_id mean_weight
##    <chr> <chr>            <dbl>
##  1 F     BA                9.16
##  2 F     DM               41.6 
##  3 F     DO               48.5 
##  4 F     DS              118.  
##  5 F     NL              154.  
##  6 F     OL               31.1 
##  7 F     OT               24.8 
##  8 F     OX               21   
##  9 F     PB               30.2 
## 10 F     PE               22.8 
## 11 F     PF                7.97
## 12 F     PH               30.8 
## 13 F     PL               19.3 
## 14 F     PM               22.1 
## 15 F     PP               17.2 
## # … with 49 more rows

Once the data are grouped, you can also summarize multiple variables at the same
time (and not necessarily on the same variable). For instance, we could add a
column indicating the minimum weight for each species for each sex:

df %>%
  filter(!is.na(weight)) %>%
  group_by(sex, species_id) %>%
  summarize(mean_weight = mean(weight),
            min_weight = min(weight))

## # A tibble: 64 × 4
## # Groups:   sex [3]
##    sex   species_id mean_weight min_weight
##    <chr> <chr>            <dbl>      <dbl>
##  1 F     BA                9.16          6
##  2 F     DM               41.6          10
##  3 F     DO               48.5          12
##  4 F     DS              118.           45
##  5 F     NL              154.           32
##  6 F     OL               31.1          10
##  7 F     OT               24.8           5
##  8 F     OX               21            20
##  9 F     PB               30.2          12
## 10 F     PE               22.8          11
## # … with 54 more rows

It is sometimes useful to rearrange the result of a query to inspect the values. For instance, we can sort on min_weight to put the lighter species first:

df %>%
  filter(!is.na(weight)) %>%
  group_by(sex, species_id) %>%
  summarize(mean_weight = mean(weight),
            min_weight = min(weight)) %>%
  arrange(min_weight)

## # A tibble: 64 × 4
## # Groups:   sex [3]
##    sex   species_id mean_weight min_weight
##    <chr> <chr>            <dbl>      <dbl>
##  1 F     PF                7.97          4
##  2 F     RM               11.1           4
##  3 M     PF                7.89          4
##  4 M     PP               17.2           4
##  5 M     RM               10.1           4
##  6 <NA>  PF                6             4
##  7 F     OT               24.8           5
##  8 F     PP               17.2           5
##  9 F     BA                9.16          6
## 10 M     BA                7.36          6
## # … with 54 more rows

To sort in descending order, we need to add the desc() function. If we want to sort the results by decreasing order of mean weight:

df %>%
  filter(!is.na(weight)) %>%
  group_by(sex, species_id) %>%
  summarize(mean_weight = mean(weight),
            min_weight = min(weight)) %>%
  arrange(desc(mean_weight))

## # A tibble: 64 × 4
## # Groups:   sex [3]
##    sex   species_id mean_weight min_weight
##    <chr> <chr>            <dbl>      <dbl>
##  1 <NA>  NL               168.          83
##  2 M     NL               166.          30
##  3 F     NL               154.          32
##  4 M     SS               130          130
##  5 <NA>  SH               130          130
##  6 M     DS               122.          12
##  7 <NA>  DS               120           78
##  8 F     DS               118.          45
##  9 F     SH                78.8         30
## 10 F     SF                69           46
## # … with 54 more rows
…
Previous example shows the use of count() to count the number of rows/observations
for one factor (i.e., sex).
If we wanted to count combination of factors, such as sex and species,
we would specify the first and the second factor as the arguments of count():

df %>%
  count(sex, species) 

## # A tibble: 81 × 3
##    sex   species         n
##    <chr> <chr>       <int>
##  1 F     albigula      675
##  2 F     baileyi      1646
##  3 F     eremicus      579
##  4 F     flavus        757
##  5 F     fulvescens     57
##  6 F     fulviventer    17
##  7 F     hispidus       99
##  8 F     leucogaster   475
##  9 F     leucopus       16
## 10 F     maniculatus   382
## # … with 71 more rows

With the above code, we can proceed with arrange() to sort the table
according to a number of criteria so that we have a better comparison.
For instance, we might want to arrange the table above in (i) an alphabetical order of
the levels of the species and (ii) in descending order of the count:

df %>%
  count(sex, species) %>%
  arrange(species, desc(n))

## # A tibble: 81 × 3
##    sex   species             n
##    <chr> <chr>           <int>
##  1 F     albigula          675
##  2 M     albigula          502
##  3 <NA>  albigula           75
##  4 <NA>  audubonii          75
##  5 F     baileyi          1646
##  6 M     baileyi          1216
##  7 <NA>  baileyi            29
##  8 <NA>  bilineata         303
##  9 <NA>  brunneicapillus    50
## 10 <NA>  chlorurus          39
## # … with 71 more rows
…
